Felony Category Multi-classification
…
random_pred |>
  precision(truth = felony_severity, estimate = .pred_class)

# A tibble: 1 × 3
  .metric   .estimator .estimate
  <chr>     <chr>          <dbl>
1 precision macro          0.529

random_pred

# A tibble: 19,252 × 36
   .pred_class felony_severity      x      y latitude longitude  year shift   
   <fct>       <fct>            <dbl>  <dbl>    <dbl>     <dbl> <dbl> <chr>   
 1 4           4               400332 136259     38.9     -77.0  2019 MIDNIGHT
 2 0           0               400622 142601     39.0     -77.0  2019 EVENING 
 3 0           0               398596 137576     38.9     -77.0  2019 EVENING 
 4 0           0               396559 137255     38.9     -77.0  2019 EVENING 
 5 0           0               397045 140766     38.9     -77.0  2019 EVENING 
 6 0           0               401822 137058     38.9     -77.0  2019 EVENING 
 7 0           0               398508 136963     38.9     -77.0  2019 MIDNIGHT
 8 0           0               397174 140033     38.9     -77.0  2019 EVENING 
 9 0           0               395295 138546     38.9     -77.1  2019 DAY     
10 0           0               402030 130847     38.8     -77.0  2019 DAY     
# ℹ 19,242 more rows
# ℹ 28 more variables: method <chr>, tract <chr>, report_date_parsed <date>,
#   in_liquor_moratorium_zone <dbl>, nearest_liquorstore_dist <dbl>,
#   near_liquorstore_200m <dbl>, near_wifi_100m <dbl>, nearest_wifi_dist <dbl>,
#   in_lowfood_zone <dbl>, nearest_grocery_dist <dbl>, near_grocery_300m <dbl>,
#   nearest_bank_dist <dbl>, near_bank_250m <dbl>, in_vending_zone <dbl>,
#   police_sector <dbl>, in_military_base <dbl>, median_income <dbl>, …
…
# cart workflow
cart_wf <- workflow() |>
  add_recipe(cart_recipe) |>
  add_model(cart_model)

# test and choose best hyperparameters
cart_test <- cart_wf |>
  tune_grid(resamples = cross_validation,
            grid = cart_grid,
            metrics = metric_set(recall, roc_auc, accuracy))

cart_test |>
  collect_metrics()

# A tibble: 375 × 9
   cost_complexity tree_depth min_n .metric  .estimator  mean     n std_err
             <dbl>      <int> <int> <chr>    <chr>      <dbl> <int>   <dbl>
 1            1.00          3     2 accuracy multiclass 0.724     5 0.00228
 2            1.00          3     2 recall   macro      0.125     5 0      
 3            1.00          3     2 roc_auc  hand_till  0.5       5 0      
 4            1.06          3     2 accuracy multiclass 0.724     5 0.00228
 5            1.06          3     2 recall   macro      0.125     5 0      
 6            1.06          3     2 roc_auc  hand_till  0.5       5 0      
 7            1.12          3     2 accuracy multiclass 0.724     5 0.00228
 8            1.12          3     2 recall   macro      0.125     5 0      
 9            1.12          3     2 roc_auc  hand_till  0.5       5 0      
10            1.19          3     2 accuracy multiclass 0.724     5 0.00228
# ℹ 365 more rows
# ℹ 1 more variable: .config <chr>
…
